John Smith 1980-01-03
Mark Brown 1976-02-02
Kamil Sikora 1998-09-30
Krzysztof Górny 1998-09-01
Damian Hoang 1999-04-01
Maria Szwedo 2000-01-25
Sebastian Sikora 1975-11-05
Robert Mari 1960-02-11
Konrad Hiacynt 1977-03-11
Agnieszk Rodo 1999-02-11
Leonanie Willshear 1965-07-17
Lorilyn Livingston 1960-12-14
Camey Gregoratti 1978-05-18
Land Poolton 1969-02-21
Jere Bye 1976-04-20
Marley Stein 1979-05-14
Fredrika Chad 2001-04-08
Audy Pagden 1945-01-17
Nickie Ballham 1971-03-30
Muhammad Huegett 1984-03-13
Elwyn Sier 1942-07-21
Devina Mora 1957-06-16
Velvet Blunn 1964-09-03
Adriana Ernshaw 2008-10-24
Tiffi Geibel 2017-05-04
Anatole Grogan 2001-05-16
Standford Oneill 1959-09-09
Cathy Hullin 1992-03-11
Dorie Eilhersen 1940-07-18
Idette Mordan 1988-01-21
Sheffy Brigden 1992-12-24
Kalindi Tatnell 1956-12-04
Aubrey Shallcross 2003-05-31
Cornie Valasek 1964-04-03
Lizabeth Davidove 1945-08-16
Tobe Yearby 1966-06-17
Doreen Jagiela 2007-05-19
Orion Flucker 1992-01-25
Ella Bruna 1956-08-01
Heda Bamlett 2017-04-27
Ilaire Croal 1980-04-24
Elias Vangeffen 1946-10-26
Rey Satyford 1959-12-29
Kliment Sicily 1983-02-28
Terencio Denyakin 2013-09-27
Milly Barrasse 1948-09-21
Rorie Dami 1965-10-04
Allsun Beckett 1960-10-04
Modesty Lukianovich 1977-09-26
Mattie Swinley 1997-09-23
Cam Guirardin 1970-08-13
Oralia Seear 1946-11-01
Clareta Mellem 1991-04-29
Darlleen Hanigan 1945-05-04
Godard Andino 2005-08-22
Fleurette Self 1995-08-18
Cherice Debell 2009-02-18
Northrup Pablos 1979-04-17
Betti Slowly 1995-07-28
Demetrius Harmeston 2012-07-12
Ania Nortunen 1985-09-08
Gerda Durban 2005-05-04
Helge Ogilvie 1994-03-04
Chandal Pheby 1951-12-26
Emmalynn Pavelka 1978-05-20
Sander Orford 1976-02-04
Stormie Luca 1947-07-14
Andrew Alyutin 1946-09-27
Claudie Rene 1993-11-05
Kathi Tomich 1977-02-17
Hazel Vauls 2002-08-29
Dianemarie Cahalan 1950-12-29
Hillel Abrahamovitz 1943-12-10
Luise Grevile 2007-05-19
Lucas Marsham 2008-11-04
Hermina Cornill 2007-09-28
Westbrooke Gardener 1980-04-10
Melamie Bickardike 1962-03-15
Dall Doveston 1991-08-18
Lianna Elijahu 1949-06-18
Zebedee Mabee 1953-08-30
Angelia Chartman 1948-08-20
Dolf Garlee 1937-12-09
Madeline Coney 1988-07-26
Idaline Cadman 1977-06-16
Moria Barnett 1980-02-01
Lacy Lintott 1961-05-09
Brit Croxley 2007-07-24
Malorie Romeo 2007-05-19
Abbey Kingham 1974-11-25
Vasily Stain 1973-04-03
Carlie Morriarty 1962-06-19
Carree Gowdy 2009-04-26
Sydney Gidney 1978-08-11
Lenora Lindenblatt 1962-09-19
Gabbie Rowth 1989-10-12
Bentley Crosen 2017-01-19
Malena Gherardi 1979-04-15
Patric Beasant 1987-08-28
Goran Edscer 1966-07-26
Terrance Kildale 1957-11-15
Cassaundra Glisane 1985-06-24
Sheena Paulucci 1971-11-14
Cookie Tollfree 1961-12-06
Ardella Mcphelimey 1967-04-10
Erminia Marchello 1995-07-26
Pepita Atherley 1958-08-13
Ansell Simionescu 2005-08-03
Riley Basil 1960-04-25
Edin Brandsma 1995-08-23